﻿{
  // "RabbitMqSettings": {
  //   "Uri": "amqp://rabbitmq:5672",
  //   "Queue":"Notify"
  // }

  "RabbitMqSettings": {
    "User": "gentreeuser",
    "Password": "gentreeuser",
    "Server": "localhost",
    "VirtualHost": "/"
  }
}
